{
  "page": 1,
  "per_page": 1,
  "photos": [
      {
          "id": 3184423,
          "width": 4004,
          "height": 6000,
          "url": "https://www.pexels.com/photo/photo-of-people-holding-each-other-s-hands-3184423/",
          "photographer": "fauxels",
          "photographer_url": "https://www.pexels.com/@fauxels",
          "photographer_id": 1281351,
          "avg_color": "#8B7D77",
          "src": {
              "original": "https://images.pexels.com/photos/3184423/pexels-photo-3184423.jpeg",
              "large2x": "https://images.pexels.com/photos/3184423/pexels-photo-3184423.jpeg?auto=compress&cs=tinysrgb&dpr=2&h=650&w=940",
              "large": "https://images.pexels.com/photos/3184423/pexels-photo-3184423.jpeg?auto=compress&cs=tinysrgb&h=650&w=940",
              "medium": "https://images.pexels.com/photos/3184423/pexels-photo-3184423.jpeg?auto=compress&cs=tinysrgb&h=350",
              "small": "https://images.pexels.com/photos/3184423/pexels-photo-3184423.jpeg?auto=compress&cs=tinysrgb&h=130",
              "portrait": "https://images.pexels.com/photos/3184423/pexels-photo-3184423.jpeg?auto=compress&cs=tinysrgb&fit=crop&h=1200&w=800",
              "landscape": "https://images.pexels.com/photos/3184423/pexels-photo-3184423.jpeg?auto=compress&cs=tinysrgb&fit=crop&h=627&w=1200",
              "tiny": "https://images.pexels.com/photos/3184423/pexels-photo-3184423.jpeg?auto=compress&cs=tinysrgb&dpr=1&fit=crop&h=200&w=280"
          },
          "liked": false,
          "alt": "Photo Of People Holding Each Other's Hands"
      }
  ],
  "total_results": 1692,
  "next_page": "https://api.pexels.com/v1/search/?page=2&per_page=1&query=denver%2Cco"
}